<svg xmlns="http://www.w3.org/2000/svg" viewBox="0 0 269 30" width="269" height="30">
	<defs>
		<clipPath clipPathUnits="userSpaceOnUse" id="cp1">
			<path d="M-80 -114L1286 -114L1286 654L-80 654Z" />
		</clipPath>
	</defs>
	<style>
		tspan { white-space:pre }
		.shp0 { fill: #5e5e5e } 
		.shp1 { fill: #2d2e83 } 
		.shp2 { fill: #ffffff } 
		.shp3 { fill: #1d71b8 } 
		.shp4 { fill: #009fe3 } 
	</style>
	<g id="Web 1366 – 4" clip-path="url(#cp1)">
		<g id="logo aca365">
			<path id="Trazado 90" fill-rule="evenodd" class="shp0" d="M15.08 10.58C16.5 11.9 17.2 13.9 17.2 16.53L17.2 29.27L14.54 29.27L14.54 26.06C13.89 27.15 12.94 28.02 11.8 28.56C10.44 29.19 8.96 29.49 7.47 29.44C5.21 29.44 3.38 28.9 2.03 27.82C0.71 26.78 -0.05 25.18 0 23.5C0 21.74 0.61 20.32 1.89 19.27C3.18 18.22 5.14 17.65 7.91 17.65L14.43 17.65L14.43 16.4C14.43 14.64 13.93 13.29 12.95 12.38C11.97 11.46 10.51 10.99 8.62 10.99C7.34 10.98 6.07 11.2 4.87 11.63C3.75 12.03 2.7 12.62 1.79 13.39L0.54 11.33C1.65 10.41 2.92 9.72 4.29 9.3C5.77 8.79 7.33 8.54 8.89 8.56C11.57 8.56 13.63 9.23 15.08 10.58ZM11.93 26.2C13.08 25.46 13.95 24.37 14.43 23.09L14.43 19.74L7.98 19.74C4.46 19.74 2.71 20.96 2.71 23.39C2.66 24.51 3.18 25.58 4.09 26.23C5 26.91 6.29 27.28 7.91 27.28C9.33 27.31 10.72 26.94 11.93 26.2Z" />
			<path id="Trazado 91" class="shp0" d="M27.89 28.13C26.31 27.26 25.01 25.97 24.13 24.41C23.21 22.76 22.73 20.89 22.75 19C22.72 17.11 23.2 15.24 24.13 13.59C25.02 12.04 26.32 10.76 27.89 9.91C29.55 8.98 31.43 8.52 33.33 8.56C34.98 8.52 36.61 8.88 38.09 9.6C39.45 10.27 40.59 11.31 41.37 12.61L39.31 14.03C38.68 13.05 37.79 12.25 36.74 11.73C35.67 11.23 34.51 10.97 33.33 10.99C31.94 10.97 30.56 11.31 29.34 11.97C28.16 12.63 27.2 13.62 26.57 14.81C25.88 16.1 25.53 17.54 25.55 19C25.52 20.46 25.87 21.91 26.57 23.19C27.2 24.37 28.16 25.35 29.34 26C30.55 26.68 31.93 27.03 33.33 27.01C34.5 27.01 35.67 26.76 36.74 26.27C37.79 25.76 38.68 24.98 39.31 24L41.37 25.39C40.58 26.7 39.43 27.75 38.06 28.43C36.58 29.12 34.96 29.47 33.33 29.44C31.43 29.48 29.56 29.02 27.89 28.13Z" />
			<path id="Trazado 92" fill-rule="evenodd" class="shp0" d="M60.16 10.58C61.58 11.9 62.29 13.9 62.29 16.53L62.29 29.27L59.66 29.27L59.66 26.06C58.99 27.14 58.03 28.01 56.88 28.56C55.54 29.19 54.07 29.49 52.59 29.44C50.29 29.44 48.47 28.9 47.12 27.82C45.79 26.78 45.04 25.18 45.09 23.5C45.03 21.87 45.73 20.31 46.98 19.27C48.23 18.19 50.26 17.65 53.03 17.65L59.52 17.65L59.52 16.4C59.52 14.64 59.05 13.29 58.07 12.38C57.09 11.46 55.63 10.99 53.71 10.99C52.43 10.98 51.16 11.2 49.96 11.63C48.84 12.03 47.79 12.63 46.88 13.39L45.63 11.33C46.74 10.42 48.01 9.73 49.38 9.3C50.86 8.8 52.41 8.54 53.98 8.56C56.68 8.56 58.74 9.23 60.16 10.58ZM57.05 26.2C58.19 25.45 59.05 24.36 59.52 23.09L59.52 19.74L53.1 19.74C49.58 19.74 47.83 20.96 47.83 23.39C47.77 24.51 48.28 25.57 49.18 26.23C50.09 26.91 51.37 27.28 53.03 27.28C54.45 27.31 55.84 26.94 57.05 26.2Z" />
			<path id="Trazado 93" fill-rule="evenodd" class="shp0" d="M88.65 0.28L88.65 29.27L86.02 29.27L86.02 25.19C85.22 26.53 84.08 27.62 82.71 28.36C81.28 29.11 79.69 29.48 78.08 29.44C76.24 29.47 74.44 29.01 72.84 28.13C71.29 27.25 70.03 25.97 69.19 24.41C68.29 22.75 67.83 20.89 67.87 19C67.83 17.1 68.29 15.23 69.19 13.56C70.03 12.01 71.3 10.73 72.84 9.87C74.44 8.99 76.24 8.54 78.08 8.56C79.65 8.53 81.2 8.89 82.6 9.6C83.95 10.3 85.08 11.34 85.88 12.61L85.88 0.28L88.65 0.28ZM84.94 23.16C85.62 21.88 85.95 20.45 85.92 19C85.95 17.54 85.62 16.1 84.94 14.81C84.3 13.63 83.35 12.65 82.2 11.97C81.01 11.31 79.67 10.97 78.31 10.99C76.94 10.97 75.59 11.31 74.39 11.97C73.24 12.65 72.29 13.63 71.65 14.81C70.99 16.11 70.65 17.54 70.67 19C70.65 20.45 70.99 21.87 71.65 23.16C72.28 24.34 73.23 25.32 74.39 26C75.58 26.68 76.94 27.03 78.31 27.01C79.68 27.03 81.02 26.68 82.2 26C83.36 25.32 84.31 24.34 84.94 23.16Z" />
			<path id="Trazado 94" fill-rule="evenodd" class="shp0" d="M114.27 19.85L97.1 19.85C97.2 21.83 98.09 23.69 99.57 25.02C101.06 26.33 102.92 27.01 105.18 27.01C106.39 27.02 107.59 26.78 108.7 26.3C109.76 25.86 110.71 25.18 111.47 24.31L113.02 26.1C112.11 27.2 110.93 28.06 109.61 28.6C106.32 29.87 102.66 29.7 99.5 28.13C97.91 27.25 96.59 25.95 95.68 24.37C94.76 22.73 94.3 20.88 94.33 19C94.3 17.11 94.75 15.25 95.65 13.59C96.47 12.05 97.71 10.77 99.23 9.91C100.79 8.99 102.57 8.53 104.37 8.56C106.16 8.53 107.93 8.99 109.47 9.91C110.98 10.77 112.22 12.05 113.02 13.59C113.91 15.25 114.36 17.12 114.31 19L114.27 19.85ZM97.1 17.78L111.67 17.78C111.47 15.76 110.72 14.1 109.37 12.85C108.02 11.6 106.36 10.96 104.37 10.96C102.38 10.96 100.72 11.56 99.4 12.85C98.03 14.14 97.21 15.9 97.1 17.78ZM107.18 0.68L110.89 0.68L104.57 5.51L101.84 5.51L107.18 0.68Z" />
			<path id="Trazado 95" class="shp0" d="M150.64 3.66C150.26 3.28 150.05 2.77 150.07 2.24C150.05 1.72 150.26 1.23 150.64 0.88C151.02 0.48 151.54 0.26 152.09 0.28C152.63 0.26 153.14 0.47 153.51 0.85C153.9 1.19 154.12 1.69 154.12 2.2C154.13 2.75 153.91 3.28 153.51 3.66C153.14 4.04 152.63 4.24 152.09 4.23C151.55 4.24 151.03 4.03 150.64 3.66L150.64 3.66ZM150.67 8.73L153.45 8.73L153.45 29.27L150.67 29.27L150.67 8.73Z" />
			<path id="Trazado 96" class="shp0" d="M164.26 28.13C162.67 27.27 161.36 25.98 160.48 24.41C159.56 22.75 159.09 20.89 159.12 19C159.08 17.11 159.55 15.24 160.48 13.59C161.36 12.03 162.67 10.75 164.26 9.91C165.92 8.98 167.8 8.52 169.7 8.56C171.34 8.52 172.96 8.88 174.43 9.6C175.8 10.27 176.95 11.31 177.75 12.61L175.65 14.03C175.02 13.05 174.13 12.25 173.08 11.73C172.03 11.23 170.87 10.97 169.7 10.99C168.3 10.97 166.92 11.31 165.68 11.97C164.51 12.64 163.55 13.62 162.91 14.81C162.24 16.11 161.91 17.54 161.93 19C161.9 20.46 162.24 21.9 162.91 23.19C163.55 24.37 164.51 25.34 165.68 26C166.91 26.68 168.3 27.03 169.7 27.01C170.87 27.01 172.02 26.75 173.08 26.27C174.13 25.76 175.02 24.98 175.65 24L177.75 25.39C176.95 26.69 175.8 27.74 174.43 28.43C172.95 29.12 171.34 29.46 169.7 29.44C167.81 29.48 165.93 29.02 164.26 28.13Z" />
			<path id="Trazado 97" fill-rule="evenodd" class="shp0" d="M185.86 28.13C184.29 27.24 183 25.94 182.11 24.37C180.3 21.01 180.3 16.96 182.11 13.59C182.99 12.04 184.29 10.76 185.86 9.91C189.2 8.11 193.23 8.11 196.57 9.91C198.13 10.76 199.42 12.04 200.29 13.59C202.09 16.96 202.09 21.01 200.29 24.37C199.41 25.94 198.13 27.23 196.57 28.13C193.22 29.88 189.21 29.88 185.86 28.13ZM195.12 26C196.29 25.34 197.24 24.35 197.86 23.16C198.52 21.87 198.86 20.45 198.84 19C198.86 17.54 198.52 16.11 197.86 14.81C197.23 13.62 196.28 12.64 195.12 11.97C192.67 10.66 189.73 10.66 187.28 11.97C186.12 12.65 185.18 13.63 184.54 14.81C183.88 16.11 183.54 17.54 183.56 19C183.54 20.45 183.88 21.87 184.54 23.16C185.17 24.34 186.12 25.32 187.28 26C189.72 27.35 192.68 27.35 195.12 26Z" />
			<path id="Trazado 98" class="shp0" d="M220.37 15.96C221.85 17.34 222.6 19.17 222.6 21.4C222.71 24.45 220.92 27.25 218.1 28.43C216.4 29.19 214.55 29.56 212.69 29.51C210.78 29.52 208.88 29.19 207.08 28.53C205.51 28 204.07 27.14 202.86 26L204.21 23.77C205.25 24.77 206.5 25.54 207.86 26.03C209.4 26.64 211.04 26.93 212.69 26.91C214.92 26.91 216.65 26.44 217.86 25.46C219.08 24.48 219.72 23.12 219.72 21.4C219.72 19.68 219.11 18.39 217.86 17.45C216.61 16.5 214.82 15.99 212.32 15.99L210.39 15.99L210.39 13.93L217.97 4.43L203.97 4.43L203.97 1.93L221.55 1.93L221.55 3.93L213.81 13.63C216.68 13.8 218.88 14.57 220.37 15.96Z" />
			<path id="Trazado 99" fill-rule="evenodd" class="shp0" d="M245.92 16.77C247.16 18.74 247.5 21.14 246.85 23.37C246.21 25.61 244.64 27.46 242.54 28.46C241.05 29.17 239.42 29.52 237.77 29.51C234.12 29.51 231.35 28.29 229.42 25.93C227.5 23.56 226.55 20.18 226.55 15.82C226.55 12.78 227.06 10.21 228.11 8.08C229.05 6.09 230.59 4.43 232.5 3.32C234.5 2.2 236.76 1.64 239.06 1.7C241.76 1.7 243.92 2.2 245.51 3.18L244.4 5.45C243.08 4.57 241.32 4.16 239.09 4.16C236.05 4.16 233.68 5.11 231.99 7.04C230.3 8.96 229.39 11.7 229.39 15.35C229.39 16.1 229.43 16.84 229.52 17.58C230.19 16.1 231.33 14.89 232.77 14.13C235.86 12.54 239.52 12.46 242.67 13.93C244 14.55 245.12 15.54 245.92 16.77ZM242.47 25.49C243.66 24.37 244.33 22.81 244.33 21.18C244.33 19.55 243.66 17.99 242.47 16.87C241.22 15.82 239.56 15.28 237.43 15.28C236.17 15.26 234.92 15.53 233.78 16.06C232.78 16.54 231.93 17.29 231.32 18.22C230.12 20.01 230.09 22.33 231.25 24.14C231.87 25.08 232.73 25.82 233.75 26.3C234.96 26.87 236.3 27.15 237.64 27.11C239.63 27.11 241.22 26.57 242.47 25.49Z" />
			<path id="Trazado 100" class="shp0" d="M266.16 15.25C267.99 16.67 268.87 18.66 268.87 21.23C268.89 22.73 268.5 24.2 267.75 25.49C266.96 26.77 265.81 27.8 264.44 28.43C262.72 29.19 260.85 29.56 258.96 29.51C257.06 29.52 255.17 29.18 253.39 28.53C251.81 28 250.37 27.14 249.16 26L250.51 23.77C251.55 24.76 252.78 25.53 254.13 26.03C255.66 26.64 257.29 26.93 258.93 26.91C261.19 26.91 262.95 26.4 264.17 25.39C265.4 24.41 266.09 22.9 266.03 21.33C266.03 19.47 265.32 18.05 263.93 17.07C262.55 16.09 260.18 15.62 256.9 15.62L251.09 15.62L252.47 1.93L267.45 1.93L267.45 4.43L254.94 4.43L253.99 13.12L257.51 13.12C261.46 13.12 264.37 13.83 266.16 15.25Z" />
			<path id="Trazado 101" fill-rule="evenodd" class="shp1" d="M144.76 8.25C145.1 8.25 145.38 8.52 145.4 8.86L145.4 28.16C145.38 28.5 145.1 28.77 144.76 28.77L138.07 28.77C137.73 28.77 137.44 28.5 137.42 28.16L137.42 8.86C137.44 8.52 137.73 8.25 138.07 8.25L144.76 8.25ZM143.14 26.25C143.51 25.67 143.51 24.93 143.14 24.36C142.77 23.78 142.09 23.47 141.41 23.56C140.73 23.47 140.06 23.78 139.69 24.36C139.32 24.93 139.32 25.67 139.69 26.25C140.06 26.83 140.73 27.14 141.41 27.04C142.09 27.14 142.77 26.83 143.14 26.25Z" />
			<path id="Rectángulo 56" class="shp2" d="M138.84 10.45L144.05 10.45L144.05 19.43L138.84 19.43L138.84 10.45Z" />
			<path id="Trazado 102" fill-rule="evenodd" class="shp3" d="M136.41 8.86C136.75 8.91 136.99 9.23 136.95 9.57L134.04 28.63C133.99 28.97 133.68 29.21 133.34 29.17L126.71 28.16C126.37 28.11 126.13 27.79 126.17 27.45L129.08 8.39C129.13 8.05 129.44 7.81 129.79 7.85L136.41 8.86ZM132.29 25.49C132.41 24.53 131.75 23.65 130.8 23.5C130.14 23.31 129.44 23.52 128.99 24.03C128.54 24.55 128.44 25.28 128.71 25.9C128.99 26.53 129.61 26.93 130.29 26.94C131.24 27.08 132.13 26.44 132.29 25.49Z" />
			<path id="Rectángulo 57" class="shp2" d="M128.89 19.07L130.24 10.18L135.37 10.96L134.03 19.84L128.89 19.07Z" />
			<path id="Trazado 103" fill-rule="evenodd" class="shp4" d="M127.45 8.86C127.62 8.89 127.76 8.97 127.86 9.11C127.95 9.24 127.99 9.41 127.96 9.57L125.09 28.63C125.04 28.97 124.72 29.21 124.38 29.17L117.75 28.16C117.41 28.11 117.17 27.79 117.21 27.45L120.12 8.39C120.17 8.05 120.49 7.81 120.83 7.85L127.45 8.86ZM121.34 26.94C122.29 27.08 123.18 26.44 123.33 25.49C123.48 24.53 122.82 23.63 121.86 23.48C120.9 23.33 120 23.99 119.85 24.95C119.77 25.41 119.89 25.89 120.17 26.26C120.45 26.64 120.87 26.88 121.34 26.94Z" />
			<path id="Rectángulo 58" class="shp2" d="M119.92 19.07L121.26 10.18L126.39 10.96L125.05 19.84L119.92 19.07Z" />
		</g>
	</g>
</svg>