<svg xmlns="http://www.w3.org/2000/svg" width="18" height="18" viewBox="0 0 18 18">
  <path id="Search" d="M587.672,2033.672a1.125,1.125,0,0,1-1.589,0l-3.536-3.538a7.861,7.861,0,1,1,1.588-1.588l3.538,3.538a1.124,1.124,0,0,1,0,1.588m-5.84-13.781a5.615,5.615,0,1,0,0,7.941,5.614,5.614,0,0,0,0-7.941" transform="translate(-570 -2016)" fill="#354052"/>
</svg>
